module localhost/caddy

go 1.23.1

require (
	github.com/caddy-dns/cloudflare v0.0.0-20240703190432-89f16b99c18e
	github.com/caddy-dns/namecheap v0.0.0-20240114194457-7095083a3538
	github.com/caddy-dns/netlify v1.1.0
	github.com/caddyserver/caddy/v2 v2.8.4
	github.com/mholt/caddy-dynamicdns v0.0.0-20241025234131-7c818ab3fc34
	github.com/mholt/caddy-ratelimit v0.0.0-20240828171918-12435ecef5db
	github.com/mholt/caddy-webdav v0.0.0-20241008162340-42168ba04c9d
	github.com/tailscale/caddy-tailscale v0.0.0-20240618041208-4e8fde6df984
	github.com/ueffel/caddy-imagefilter/v2 v2.2.0
)

require (
	filippo.io/edwards25519 v1.1.0 // indirect
	github.com/AndreasBriese/bbloom v0.0.0-20190825152654-46b345b51c96 // indirect
	github.com/BurntSushi/toml v1.3.2 // indirect
	github.com/Masterminds/goutils v1.1.1 // indirect
	github.com/Masterminds/semver/v3 v3.2.1 // indirect
	github.com/Masterminds/sprig/v3 v3.2.3 // indirect
	github.com/Microsoft/go-winio v0.6.1 // indirect
	github.com/akutz/memconn v0.1.0 // indirect
	github.com/alecthomas/chroma/v2 v2.13.0 // indirect
	github.com/alexbrainman/sspi v0.0.0-20231016080023-1a75b4708caa // indirect
	github.com/antlr4-go/antlr/v4 v4.13.0 // indirect
	github.com/aryann/difflib v0.0.0-20210328193216-ff5ff6dc229b // indirect
	github.com/asaskevich/govalidator v0.0.0-20210307081110-f21760c49a8d // indirect
	github.com/aws/aws-sdk-go-v2 v1.26.1 // indirect
	github.com/aws/aws-sdk-go-v2/config v1.27.13 // indirect
	github.com/aws/aws-sdk-go-v2/credentials v1.17.13 // indirect
	github.com/aws/aws-sdk-go-v2/feature/ec2/imds v1.16.1 // indirect
	github.com/aws/aws-sdk-go-v2/internal/configsources v1.3.5 // indirect
	github.com/aws/aws-sdk-go-v2/internal/endpoints/v2 v2.6.5 // indirect
	github.com/aws/aws-sdk-go-v2/internal/ini v1.8.0 // indirect
	github.com/aws/aws-sdk-go-v2/service/internal/accept-encoding v1.11.2 // indirect
	github.com/aws/aws-sdk-go-v2/service/internal/presigned-url v1.11.7 // indirect
	github.com/aws/aws-sdk-go-v2/service/ssm v1.44.7 // indirect
	github.com/aws/aws-sdk-go-v2/service/sso v1.20.6 // indirect
	github.com/aws/aws-sdk-go-v2/service/ssooidc v1.24.0 // indirect
	github.com/aws/aws-sdk-go-v2/service/sts v1.28.7 // indirect
	github.com/aws/smithy-go v1.20.2 // indirect
	github.com/beorn7/perks v1.0.1 // indirect
	github.com/bits-and-blooms/bitset v1.13.0 // indirect
	github.com/caddyserver/certmagic v0.21.3 // indirect
	github.com/caddyserver/zerossl v0.1.3 // indirect
	github.com/cenkalti/backoff/v4 v4.2.1 // indirect
	github.com/cespare/xxhash v1.1.0 // indirect
	github.com/cespare/xxhash/v2 v2.2.0 // indirect
	github.com/chzyer/readline v1.5.1 // indirect
	github.com/coreos/go-iptables v0.7.1-0.20240112124308-65c67c9f46e6 // indirect
	github.com/cpuguy83/go-md2man/v2 v2.0.4 // indirect
	github.com/dblohm7/wingoes v0.0.0-20240119213807-a09d6be7affa // indirect
	github.com/dgraph-io/badger v1.6.2 // indirect
	github.com/dgraph-io/badger/v2 v2.2007.4 // indirect
	github.com/dgraph-io/ristretto v0.1.1 // indirect
	github.com/dgryski/go-farm v0.0.0-20200201041132-a6ae2369ad13 // indirect
	github.com/digitalocean/go-smbios v0.0.0-20180907143718-390a4f403a8e // indirect
	github.com/disintegration/imaging v1.6.2 // indirect
	github.com/dlclark/regexp2 v1.11.0 // indirect
	github.com/dustin/go-humanize v1.0.1 // indirect
	github.com/felixge/httpsnoop v1.0.4 // indirect
	github.com/fxamacker/cbor/v2 v2.6.0 // indirect
	github.com/gaissmai/bart v0.4.1 // indirect
	github.com/go-chi/chi/v5 v5.0.12 // indirect
	github.com/go-jose/go-jose/v3 v3.0.3 // indirect
	github.com/go-json-experiment/json v0.0.0-20231102232822-2e55bd4e08b0 // indirect
	github.com/go-kit/kit v0.13.0 // indirect
	github.com/go-kit/log v0.2.1 // indirect
	github.com/go-logfmt/logfmt v0.6.0 // indirect
	github.com/go-logr/logr v1.4.1 // indirect
	github.com/go-logr/stdr v1.2.2 // indirect
	github.com/go-ole/go-ole v1.3.0 // indirect
	github.com/go-openapi/analysis v0.21.4 // indirect
	github.com/go-openapi/errors v0.20.3 // indirect
	github.com/go-openapi/jsonpointer v0.20.2 // indirect
	github.com/go-openapi/jsonreference v0.20.4 // indirect
	github.com/go-openapi/loads v0.21.2 // indirect
	github.com/go-openapi/runtime v0.19.24 // indirect
	github.com/go-openapi/spec v0.20.8 // indirect
	github.com/go-openapi/strfmt v0.21.3 // indirect
	github.com/go-openapi/swag v0.22.7 // indirect
	github.com/go-openapi/validate v0.20.0 // indirect
	github.com/go-sql-driver/mysql v1.7.1 // indirect
	github.com/go-task/slim-sprig v0.0.0-20230315185526-52ccab3ef572 // indirect
	github.com/godbus/dbus/v5 v5.1.1-0.20230522191255-76236955d466 // indirect
	github.com/golang/glog v1.2.0 // indirect
	github.com/golang/groupcache v0.0.0-20210331224755-41bb18bfe9da // indirect
	github.com/golang/protobuf v1.5.4 // indirect
	github.com/golang/snappy v0.0.4 // indirect
	github.com/google/btree v1.1.2 // indirect
	github.com/google/cel-go v0.20.1 // indirect
	github.com/google/certificate-transparency-go v1.1.8-0.20240110162603-74a5dd331745 // indirect
	github.com/google/go-cmp v0.6.0 // indirect
	github.com/google/go-tpm v0.9.0 // indirect
	github.com/google/go-tspi v0.3.0 // indirect
	github.com/google/nftables v0.2.1-0.20240414091927-5e242ec57806 // indirect
	github.com/google/pprof v0.0.0-20231212022811-ec68065c825e // indirect
	github.com/google/uuid v1.6.0 // indirect
	github.com/gorilla/csrf v1.7.2 // indirect
	github.com/gorilla/securecookie v1.1.2 // indirect
	github.com/grpc-ecosystem/grpc-gateway/v2 v2.18.0 // indirect
	github.com/hdevalence/ed25519consensus v0.2.0 // indirect
	github.com/huandu/xstrings v1.4.0 // indirect
	github.com/illarion/gonotify v1.0.1 // indirect
	github.com/imdario/mergo v0.3.16 // indirect
	github.com/inconshreveable/mousetrap v1.1.0 // indirect
	github.com/insomniacslk/dhcp v0.0.0-20231206064809-8c70d406f6d2 // indirect
	github.com/jackc/chunkreader/v2 v2.0.1 // indirect
	github.com/jackc/pgconn v1.14.3 // indirect
	github.com/jackc/pgio v1.0.0 // indirect
	github.com/jackc/pgpassfile v1.0.0 // indirect
	github.com/jackc/pgproto3/v2 v2.3.3 // indirect
	github.com/jackc/pgservicefile v0.0.0-20231201235250-de7065d80cb9 // indirect
	github.com/jackc/pgtype v1.14.0 // indirect
	github.com/jackc/pgx/v4 v4.18.3 // indirect
	github.com/jmespath/go-jmespath v0.4.0 // indirect
	github.com/josharian/intern v1.0.0 // indirect
	github.com/josharian/native v1.1.1-0.20230202152459-5c7d0dd6ab86 // indirect
	github.com/jsimonetti/rtnetlink v1.4.0 // indirect
	github.com/klauspost/compress v1.17.8 // indirect
	github.com/klauspost/cpuid/v2 v2.2.7 // indirect
	github.com/kortschak/wol v0.0.0-20200729010619-da482cc4850a // indirect
	github.com/libdns/cloudflare v0.1.2-0.20240604123710-0549667a10ab // indirect
	github.com/libdns/libdns v0.2.2 // indirect
	github.com/libdns/namecheap v0.0.0-20211109042440-fc7440785c8e // indirect
	github.com/libdns/netlify v1.1.0 // indirect
	github.com/mailru/easyjson v0.7.7 // indirect
	github.com/manifoldco/promptui v0.9.0 // indirect
	github.com/mattn/go-colorable v0.1.13 // indirect
	github.com/mattn/go-isatty v0.0.20 // indirect
	github.com/mdlayher/genetlink v1.3.2 // indirect
	github.com/mdlayher/netlink v1.7.2 // indirect
	github.com/mdlayher/sdnotify v1.0.0 // indirect
	github.com/mdlayher/socket v0.5.0 // indirect
	github.com/mgutz/ansi v0.0.0-20200706080929-d51e80ef957d // indirect
	github.com/mholt/acmez/v2 v2.0.1 // indirect
	github.com/miekg/dns v1.1.59 // indirect
	github.com/mitchellh/copystructure v1.2.0 // indirect
	github.com/mitchellh/go-ps v1.0.0 // indirect
	github.com/mitchellh/mapstructure v1.5.0 // indirect
	github.com/mitchellh/reflectwalk v1.0.2 // indirect
	github.com/netlify/open-api/v2 v2.12.2 // indirect
	github.com/oklog/ulid v1.3.1 // indirect
	github.com/onsi/ginkgo/v2 v2.13.2 // indirect
	github.com/pierrec/lz4/v4 v4.1.21 // indirect
	github.com/pires/go-proxyproto v0.7.0 // indirect
	github.com/pkg/errors v0.9.1 // indirect
	github.com/prometheus-community/pro-bing v0.4.0 // indirect
	github.com/prometheus/client_golang v1.19.1 // indirect
	github.com/prometheus/client_model v0.5.0 // indirect
	github.com/prometheus/common v0.48.0 // indirect
	github.com/prometheus/procfs v0.12.0 // indirect
	github.com/quic-go/qpack v0.4.0 // indirect
	github.com/quic-go/quic-go v0.44.0 // indirect
	github.com/rs/xid v1.5.0 // indirect
	github.com/russross/blackfriday/v2 v2.1.0 // indirect
	github.com/safchain/ethtool v0.3.0 // indirect
	github.com/shopspring/decimal v1.3.1 // indirect
	github.com/shurcooL/sanitized_anchor_name v1.0.0 // indirect
	github.com/sirupsen/logrus v1.9.3 // indirect
	github.com/slackhq/nebula v1.7.2 // indirect
	github.com/smallstep/certificates v0.26.1 // indirect
	github.com/smallstep/go-attestation v0.4.4-0.20240109183208-413678f90935 // indirect
	github.com/smallstep/nosql v0.6.1 // indirect
	github.com/smallstep/pkcs7 v0.0.0-20231107075624-be1870d87d13 // indirect
	github.com/smallstep/scep v0.0.0-20231024192529-aee96d7ad34d // indirect
	github.com/smallstep/truststore v0.13.0 // indirect
	github.com/spf13/cast v1.6.0 // indirect
	github.com/spf13/cobra v1.8.0 // indirect
	github.com/spf13/pflag v1.0.5 // indirect
	github.com/stoewer/go-strcase v1.3.0 // indirect
	github.com/tailscale/certstore v0.1.1-0.20231202035212-d3fa0460f47e // indirect
	github.com/tailscale/go-winio v0.0.0-20231025203758-c4f33415bf55 // indirect
	github.com/tailscale/golang-x-crypto v0.0.0-20240604161659-3fde5e568aa4 // indirect
	github.com/tailscale/goupnp v1.0.1-0.20210804011211-c64d0f06ea05 // indirect
	github.com/tailscale/hujson v0.0.0-20221223112325-20486734a56a // indirect
	github.com/tailscale/netlink v1.1.1-0.20211101221916-cabfb018fe85 // indirect
	github.com/tailscale/peercred v0.0.0-20240214030740-b535050b2aa4 // indirect
	github.com/tailscale/tscert v0.0.0-20240608151842-d3f834017e53 // indirect
	github.com/tailscale/web-client-prebuilt v0.0.0-20240226180453-5db17b287bf1 // indirect
	github.com/tailscale/wireguard-go v0.0.0-20240429185444-03c5a0ccf754 // indirect
	github.com/tcnksm/go-httpstat v0.2.0 // indirect
	github.com/tidwall/pretty v1.2.0 // indirect
	github.com/u-root/uio v0.0.0-20240118234441-a3c409a6018e // indirect
	github.com/urfave/cli v1.22.14 // indirect
	github.com/vishvananda/netlink v1.2.1-beta.2 // indirect
	github.com/vishvananda/netns v0.0.4 // indirect
	github.com/x448/float16 v0.8.4 // indirect
	github.com/yuin/goldmark v1.7.1 // indirect
	github.com/yuin/goldmark-highlighting/v2 v2.0.0-20230729083705-37449abec8cc // indirect
	github.com/zeebo/blake3 v0.2.3 // indirect
	gitlab.com/NebulousLabs/fastrand v0.0.0-20181126182046-603482d69e40 // indirect
	gitlab.com/NebulousLabs/go-upnp v0.0.0-20211002182029-11da932010b6 // indirect
	go.etcd.io/bbolt v1.3.9 // indirect
	go.mongodb.org/mongo-driver v1.11.1 // indirect
	go.opentelemetry.io/contrib/instrumentation/net/http/otelhttp v0.49.0 // indirect
	go.opentelemetry.io/contrib/propagators/autoprop v0.42.0 // indirect
	go.opentelemetry.io/contrib/propagators/aws v1.17.0 // indirect
	go.opentelemetry.io/contrib/propagators/b3 v1.17.0 // indirect
	go.opentelemetry.io/contrib/propagators/jaeger v1.17.0 // indirect
	go.opentelemetry.io/contrib/propagators/ot v1.17.0 // indirect
	go.opentelemetry.io/otel v1.24.0 // indirect
	go.opentelemetry.io/otel/exporters/otlp/otlptrace v1.21.0 // indirect
	go.opentelemetry.io/otel/exporters/otlp/otlptrace/otlptracegrpc v1.21.0 // indirect
	go.opentelemetry.io/otel/metric v1.24.0 // indirect
	go.opentelemetry.io/otel/sdk v1.21.0 // indirect
	go.opentelemetry.io/otel/trace v1.24.0 // indirect
	go.opentelemetry.io/proto/otlp v1.0.0 // indirect
	go.step.sm/cli-utils v0.9.0 // indirect
	go.step.sm/crypto v0.45.0 // indirect
	go.step.sm/linkedca v0.20.1 // indirect
	go.uber.org/automaxprocs v1.5.3 // indirect
	go.uber.org/mock v0.4.0 // indirect
	go.uber.org/multierr v1.11.0 // indirect
	go.uber.org/zap v1.27.0 // indirect
	go.uber.org/zap/exp v0.2.0 // indirect
	go4.org/mem v0.0.0-20220726221520-4f986261bf13 // indirect
	go4.org/netipx v0.0.0-20231129151722-fdeea329fbba // indirect
	golang.org/x/crypto v0.27.0 // indirect
	golang.org/x/crypto/x509roots/fallback v0.0.0-20240507223354-67b13616a595 // indirect
	golang.org/x/exp v0.0.0-20240506185415-9bf2ced13842 // indirect
	golang.org/x/image v0.21.0 // indirect
	golang.org/x/mod v0.17.0 // indirect
	golang.org/x/net v0.29.0 // indirect
	golang.org/x/sync v0.8.0 // indirect
	golang.org/x/sys v0.25.0 // indirect
	golang.org/x/term v0.24.0 // indirect
	golang.org/x/text v0.19.0 // indirect
	golang.org/x/time v0.5.0 // indirect
	golang.org/x/tools v0.21.1-0.20240508182429-e35e4ccd0d2d // indirect
	golang.zx2c4.com/wintun v0.0.0-20230126152724-0fa3db229ce2 // indirect
	golang.zx2c4.com/wireguard/windows v0.5.3 // indirect
	google.golang.org/genproto/googleapis/api v0.0.0-20240506185236-b8a5c65736ae // indirect
	google.golang.org/genproto/googleapis/rpc v0.0.0-20240429193739-8cf5692501f6 // indirect
	google.golang.org/grpc v1.63.2 // indirect
	google.golang.org/protobuf v1.34.1 // indirect
	gopkg.in/natefinch/lumberjack.v2 v2.2.1 // indirect
	gopkg.in/yaml.v3 v3.0.1 // indirect
	gvisor.dev/gvisor v0.0.0-20240306221502-ee1e1f6070e3 // indirect
	howett.net/plist v1.0.1 // indirect
	nhooyr.io/websocket v1.8.10 // indirect
	tailscale.com v1.68.2 // indirect
)
